\relax 
\@writefile{toc}{\contentsline {section}{\numberline {1}Design history}{2}}
\@writefile{toc}{\contentsline {section}{\numberline {2}Game philosophy}{2}}
\@writefile{toc}{\contentsline {subsection}{\numberline {2.1}Board game 2.0}{2}}
\@writefile{toc}{\contentsline {subsection}{\numberline {2.2}Breeding}{2}}
\@writefile{toc}{\contentsline {section}{\numberline {3}Core game play mechanics}{3}}
\@writefile{toc}{\contentsline {subsection}{\numberline {3.1}Monkeys and tribes}{3}}
\@writefile{toc}{\contentsline {subsection}{\numberline {3.2}Base actions}{3}}
\@writefile{toc}{\contentsline {subsection}{\numberline {3.3}Totems}{4}}
\@writefile{toc}{\contentsline {subsection}{\numberline {3.4}Trade}{4}}
\@writefile{toc}{\contentsline {subsection}{\numberline {3.5}Events}{4}}
\@writefile{toc}{\contentsline {subsection}{\numberline {3.6}End of game}{4}}
\@writefile{toc}{\contentsline {section}{\numberline {4}User interface}{5}}
\@writefile{toc}{\contentsline {subsection}{\numberline {4.1}Platforms}{5}}
\@writefile{toc}{\contentsline {subsection}{\numberline {4.2}Player view and actions}{5}}
\@writefile{toc}{\contentsline {subsection}{\numberline {4.3}Graphics and animations}{5}}
\@writefile{toc}{\contentsline {subsection}{\numberline {4.4}Sounds and music}{5}}
\newlabel{LastPage}{{}{5}}
\xdef\lastpage@lastpage{5}
\gdef\lastpage@lastpageHy{}
